Account vitrex traded 5 hours 2016-05-04 01:46:33
Account jaszkins traded 9 hours 2016-05-04 01:49:12
Account vitrex traded 10 hours 2016-05-04 01:59:13
Account bagomilas5 traded 10 hours 2016-05-04 02:56:09
Account bagomilas5 traded 5 hours 2016-05-04 02:56:14
Account bagomilas5 traded 5 hours 2016-05-04 02:56:17
Account bagomilas5 traded 5 hours 2016-05-04 02:56:30
Account bagomilas8 traded 10 hours 2016-05-04 02:57:06
Account bagomilas8 traded 5 hours 2016-05-04 02:57:08
Account bagomilas8 traded 5 hours 2016-05-04 02:57:11
Account bagomilas8 traded 5 hours 2016-05-04 02:57:12
Account vitrex traded 7 hours 2016-05-05 00:44:12
Account dmitrijm traded 24 hours 2016-05-05 00:56:54
Account jaszkins traded 11 hours 2016-05-05 02:44:24
Account medis traded 12 hours 2016-05-05 02:59:41
Account bagomilas5 traded 16 hours 2016-05-05 03:07:46
Account bagomilas8 traded 16 hours 2016-05-05 03:08:21
Account Paulius70 traded 5 hours 2016-05-05 04:19:14
Account dmitrijm traded 4 hours 2016-05-05 04:33:44
Account vilhelmas traded 1 hours 2016-05-05 04:45:02
Account zbednik199 traded 18 hours 2016-05-05 04:45:17
Account zbednik199 traded 3 hours 2016-05-05 07:39:40
Account dmitrijm traded 9 hours 2016-05-05 13:07:06
Account amaniac traded 50 hours 2016-05-05 14:42:30
Account zbednik199 traded 7 hours 2016-05-05 16:22:29
Account zbednik199 traded 1 hours 2016-05-05 17:05:00
Account zbednik199 traded 1 hours 2016-05-05 18:07:56
Account zbednik199 traded 1 hours 2016-05-05 19:15:37
Account zbednik199 traded 1 hours 2016-05-05 20:46:41
Account zbednik199 traded 1 hours 2016-05-05 21:25:53
Account zbednik199 traded 1 hours 2016-05-05 22:30:55
Account jaszkins traded 16 hours 2016-05-06 00:45:59
Account eChOs traded 20 hours 2016-05-06 01:27:13
Account Bijak traded 10 hours 2016-05-06 01:59:15
Account amaniac traded 10 hours 2016-05-06 02:42:35
Account vilhelmas traded 3 hours 2016-05-06 03:57:00
Account dmitrijm traded 15 hours 2016-05-06 04:22:14
Account zbednik199 traded 7 hours 2016-05-06 05:25:49
Account jaszkins traded 5 hours 2016-05-06 05:36:17
Account zbednik199 traded 2 hours 2016-05-06 07:54:15
Account dmitrijm traded 1 hours 2016-05-06 13:07:05
Account eChOs traded 6 hours 2016-05-06 13:16:32
Account olix008 traded 27 hours 2016-05-06 14:22:19
Account jaszkins traded 1 hours 2016-05-06 16:07:31
Account bagomilas8 traded 19 hours 2016-05-06 18:34:03
Account bagomilas5 traded 18 hours 2016-05-06 18:34:19
Account dmitrijm traded 3 hours 2016-05-06 20:05:13
Account vilhelmas traded 1 hours 2016-05-06 20:28:36
Account eChOs traded 9 hours 2016-05-06 22:18:35
Account dmitrijm traded 2 hours 2016-05-06 22:55:28
Account krutoyed traded 4 hours 2016-05-07 04:11:45
Account dmitrijm traded 4 hours 2016-05-07 04:40:39
Account Paulius70 traded 9 hours 2016-05-07 05:00:34
Account eChOs traded 13 hours 2016-05-07 12:43:25
Account dmitrijm traded 8 hours 2016-05-07 14:06:42
Account bagomilas5 traded 15 hours 2016-05-07 16:46:03
Account olix008 traded 17 hours 2016-05-07 17:31:38
Account jaszkins traded 10 hours 2016-05-07 19:46:38
Account Paulius70 traded 2 hours 2016-05-07 19:50:28
Account dmitrijm traded 1 hours 2016-05-08 01:58:25
Account jaszkins traded 8 hours 2016-05-08 03:41:37
Account dmitrijm traded 2 hours 2016-05-08 04:15:10
Account vilhelmas traded 8 hours 2016-05-08 05:24:02
Account Dankmemes traded 15 hours 2016-05-08 06:19:39
Account eChOs traded 17 hours 2016-05-08 06:21:15
Account bagomilas5 traded 17 hours 2016-05-08 08:12:33
Account dmitrijm traded 9 hours 2016-05-08 14:04:19
Account Bijak traded 14 hours 2016-05-08 15:06:47
Account dmitrijm traded 1 hours 2016-05-08 15:15:17
Account dmitrijm traded 1 hours 2016-05-08 16:12:13
Account jatoja traded 32 hours 2016-05-08 16:25:01
Account katia traded 50 hours 2016-05-08 16:42:39
Account dmitrijm traded 1 hours 2016-05-08 17:10:15
Account bagomilas5 traded 9 hours 2016-05-08 17:13:47
Account dmitrijm traded 1 hours 2016-05-08 18:12:48
Account jatoja traded 2 hours 2016-05-08 18:12:48
Account bagomilas8 traded 31 hours 2016-05-08 18:19:59
Account Paulius7 traded 14 hours 2016-05-08 18:28:03
Account bialy96 traded 25 hours 2016-05-08 19:17:32
Account dmitrijm traded 1 hours 2016-05-08 19:24:55
Account olix008 traded 8 hours 2016-05-08 19:41:59
Account malaciux traded 1 hours 2016-05-08 19:57:54
Account dmitrijm traded 2 hours 2016-05-08 20:10:57
Account jaszkins traded 7 hours 2016-05-08 20:13:47
Account dmitrijm traded 1 hours 2016-05-08 21:29:47
Account dmitrijm traded 1 hours 2016-05-08 22:08:12
Account jaszkins traded 2 hours 2016-05-08 22:38:54
Account dmitrijm traded 1 hours 2016-05-08 23:02:52
Account katia traded 7 hours 2016-05-08 23:20:04
Account Wolf89 traded 65 hours 2016-05-08 23:25:29
Account jatoja traded 5 hours 2016-05-08 23:26:36
Account dmitrijm traded 1 hours 2016-05-09 00:06:02
Account dmitrijm traded 1 hours 2016-05-09 01:03:03
Account amaniac traded 7 hours 2016-05-09 02:02:09
Account Wolf89 traded 3 hours 2016-05-09 02:39:10
Account Wolf89 traded 1 hours 2016-05-09 03:38:10
Account jaszkins traded 5 hours 2016-05-09 03:41:01
Account dmitrijm traded 2 hours 2016-05-09 04:25:04
Account ookamilo traded 128 hours 2016-05-09 05:43:49
Account mmlody traded 138 hours 2016-05-09 06:01:59
Account jaszkins traded 3 hours 2016-05-09 06:19:32
Account Bijak traded 4 hours 2016-05-09 09:11:47
Account dmitrijm traded 9 hours 2016-05-09 13:05:48
Account Wolf89 traded 10 hours 2016-05-09 13:44:19
Account amaniac traded 12 hours 2016-05-09 14:17:22
Account dmitrijm traded 2 hours 2016-05-09 15:12:18
Account bagomilas5 traded 10 hours 2016-05-09 15:36:43
Account jatoja traded 3 hours 2016-05-09 16:08:27
Account dmitrijm traded 1 hours 2016-05-09 16:23:22
Account ookamilo traded 12 hours 2016-05-09 17:47:33
Account jatoja traded 1 hours 2016-05-09 18:59:14
Account jaszkins traded 5 hours 2016-05-09 19:00:25
Account Bijak traded 3 hours 2016-05-09 21:29:13
Account Paulius70 traded 24 hours 2016-05-09 21:46:38
Account Paulius7 traded 11 hours 2016-05-09 21:53:10
Account jaszkins traded 3 hours 2016-05-09 23:22:14
Account jatoja traded 6 hours 2016-05-10 01:43:17
Account Wolf89 traded 4 hours 2016-05-10 02:25:36
Account eChOs traded 35 hours 2016-05-10 02:53:03
Account katia traded 14 hours 2016-05-10 03:21:07
Account dmitrijm traded 12 hours 2016-05-10 04:23:25
Account Wolf89 traded 2 hours 2016-05-10 04:29:48
Account jatoja traded 4 hours 2016-05-10 05:08:14
Account katia traded 2 hours 2016-05-10 05:21:46
Account Bijak traded 4 hours 2016-05-10 06:06:17
Account jatoja traded 1 hours 2016-05-10 06:52:19
Account Bijak traded 5 hours 2016-05-10 12:00:24
Account dmitrijm traded 9 hours 2016-05-10 13:05:44
Account jatoja traded 2 hours 2016-05-10 14:44:59
Account bagomilas5 traded 16 hours 2016-05-10 16:17:29
Account bagomilas8 traded 25 hours 2016-05-10 16:17:50
Account jaszkins traded 4 hours 2016-05-10 16:57:55
Account katia traded 7 hours 2016-05-10 18:14:05
Account dmitrijm traded 5 hours 2016-05-10 19:10:54
Account SkandiNav traded 1 hours 2016-05-10 19:51:33
Account amaniac traded 16 hours 2016-05-10 21:26:34
Account itsbritney traded 3 hours 2016-05-10 22:13:45
Account Bijak traded 10 hours 2016-05-10 22:22:23
Account jatoja traded 7 hours 2016-05-11 00:30:29
Account dmitrijm traded 5 hours 2016-05-11 00:33:14
Account zbednik199 traded 3 hours 2016-05-11 02:06:35
Account dmitrijm traded 2 hours 2016-05-11 03:01:07
Account jatoja traded 3 hours 2016-05-11 03:17:47
Account katia traded 6 hours 2016-05-11 03:55:19
Account dmitrijm traded 1 hours 2016-05-11 04:21:41
Account bialy96 traded 22 hours 2016-05-11 04:47:32
Account Dankmemes traded 20 hours 2016-05-11 05:16:51
Account jaszkins traded 3 hours 2016-05-11 05:46:56
Account katia traded 3 hours 2016-05-11 06:20:25
Account dmitrijm traded 10 hours 2016-05-11 14:01:05
Account zbednik199 traded 11 hours 2016-05-11 17:03:26
Account zbednik199 traded 1 hours 2016-05-11 20:40:23
Account amaniac traded 39 hours 2016-05-11 23:35:07
Account Bijak traded 4 hours 2016-05-12 00:32:10
Account jaszkins traded 3 hours 2016-05-12 01:11:10
Account jatoja traded 4 hours 2016-05-12 04:23:51
Account katia traded 2 hours 2016-05-12 05:54:36
Account jaszkins traded 5 hours 2016-05-12 07:00:27
Account zbednik999 traded 4 hours 2016-05-12 07:31:06
